%YAML 1.1
%TAG !u! tag:unity3d.com,2011:
--- !u!114 &11400000
MonoBehaviour:
  m_ObjectHideFlags: 0
  m_CorrespondingSourceObject: {fileID: 0}
  m_PrefabInternal: {fileID: 0}
  m_GameObject: {fileID: 0}
  m_Enabled: 1
  m_EditorHideFlags: 0
  m_Script: {fileID: 11500000, guid: 9850ec6d1b169984a94ec4c46ef9b58f, type: 3}
  m_Name: Level Controller Settings
  m_EditorClassIdentifier: 
  _distanceRange: {x: 15, y: 60}
  _snakeSpeedRange: {x: 3, y: 6}
  _initialGoalBlockcount: 9
